module codeberg.org/ess/fuaa

go 1.14

require (
	github.com/SermoDigital/jose v0.9.1
	github.com/cloudfoundry-community/go-uaa v0.3.1
	github.com/google/uuid v1.3.0
	github.com/labstack/echo/v4 v4.9.0
)
